{
  "stage-common.master_bed": {
    "$dnanexus_link": {
      "id": "file-GK51zy00QXkJF1kQ6Vz14XQ4",
      "project": "project-GJGP1980QXk9954g0BK6Q310"
    }
  },
  "stage-common.genome_fa": {
    "$dnanexus_link": {
      "id": "file-GK52Bb80QXk5pgzb6v5bpJ3b",
      "project": "project-GJGP1980QXk9954g0BK6Q310"
    }
  },
  "stage-common.genome_fa_bwa_index": {
    "$dnanexus_link": {
      "id": "file-GKqKzJ00QXk0722Q61YzVy6j",
      "project": "project-GJGP1980QXk9954g0BK6Q310"
    }
  },
  "stage-common.trimmed_fastq_R1": {
    "$dnanexus_link": {
      "id": "file-GKqB7Q80QXk812g5Gkxk3YQk",
      "project": "project-GJGP1980QXk9954g0BK6Q310"
    }
  },
  "stage-common.genome_fa_index": {
    "$dnanexus_link": {
      "id": "file-GK52PjQ0QXk0x33G6bp97q0X",
      "project": "project-GJGP1980QXk9954g0BK6Q310"
    }
  },
  "stage-common.sample_name": "WF_B2219809-004",
  "stage-common.trimmed_fastq_R2": {
    "$dnanexus_link": {
      "id": "file-GKqB77Q0QXk3xjZj6PX2px4y",
      "project": "project-GJGP1980QXk9954g0BK6Q310"
    }
  },
  "stage-common.genome_fa_dict": {
    "$dnanexus_link": {
      "id": "file-GK52BX00QXk0x33G6bp97k5G",
      "project": "project-GJGP1980QXk9954g0BK6Q310"
    }
  }
}